date, compiler, mpi, machine_type, n_nodes, packet_size, bandwidth 
2020-02-28 20:06, gnu8, mpich, n2-highcpu-64, 1, 1, 4.81
2020-02-28 20:06, gnu8, mpich, n2-highcpu-64, 1, 2, 9.30
2020-02-28 20:06, gnu8, mpich, n2-highcpu-64, 1, 4, 19.46
2020-02-28 20:06, gnu8, mpich, n2-highcpu-64, 1, 8, 39.64
2020-02-28 20:06, gnu8, mpich, n2-highcpu-64, 1, 16, 78.95
2020-02-28 20:06, gnu8, mpich, n2-highcpu-64, 1, 32, 158.14
2020-02-28 20:06, gnu8, mpich, n2-highcpu-64, 1, 64, 303.10
2020-02-28 20:06, gnu8, mpich, n2-highcpu-64, 1, 128, 569.91
2020-02-28 20:06, gnu8, mpich, n2-highcpu-64, 1, 256, 1025.66
2020-02-28 20:06, gnu8, mpich, n2-highcpu-64, 1, 512, 2035.53
2020-02-28 20:06, gnu8, mpich, n2-highcpu-64, 1, 1024, 3442.43
2020-02-28 20:06, gnu8, mpich, n2-highcpu-64, 1, 2048, 5310.11
2020-02-28 20:06, gnu8, mpich, n2-highcpu-64, 1, 4096, 7662.10
2020-02-28 20:06, gnu8, mpich, n2-highcpu-64, 1, 8192, 10900.82
2020-02-28 20:06, gnu8, mpich, n2-highcpu-64, 1, 16384, 13378.09
2020-02-28 20:06, gnu8, mpich, n2-highcpu-64, 1, 32768, 13978.69
2020-02-28 20:06, gnu8, mpich, n2-highcpu-64, 1, 65536, 8281.01
2020-02-28 20:06, gnu8, mpich, n2-highcpu-64, 1, 131072, 11434.08
2020-02-28 20:06, gnu8, mpich, n2-highcpu-64, 1, 262144, 13205.86
2020-02-28 20:06, gnu8, mpich, n2-highcpu-64, 1, 524288, 14299.25
2020-02-28 20:06, gnu8, mpich, n2-highcpu-64, 1, 1048576, 12315.04
2020-02-28 20:06, gnu8, mpich, n2-highcpu-64, 1, 2097152, 11335.73
2020-02-28 20:06, gnu8, mpich, n2-highcpu-64, 1, 4194304, 11178.97
2020-02-28 20:06, gnu8, mpich, n2-highcpu-64, 1, 1, 4.78
2020-02-28 20:06, gnu8, mpich, n2-highcpu-64, 1, 2, 9.66
2020-02-28 20:06, gnu8, mpich, n2-highcpu-64, 1, 4, 19.35
2020-02-28 20:06, gnu8, mpich, n2-highcpu-64, 1, 8, 38.87
2020-02-28 20:06, gnu8, mpich, n2-highcpu-64, 1, 16, 77.50
2020-02-28 20:06, gnu8, mpich, n2-highcpu-64, 1, 32, 155.93
2020-02-28 20:06, gnu8, mpich, n2-highcpu-64, 1, 64, 300.09
2020-02-28 20:06, gnu8, mpich, n2-highcpu-64, 1, 128, 561.07
2020-02-28 20:06, gnu8, mpich, n2-highcpu-64, 1, 256, 1011.47
2020-02-28 20:06, gnu8, mpich, n2-highcpu-64, 1, 512, 2006.99
2020-02-28 20:06, gnu8, mpich, n2-highcpu-64, 1, 1024, 3401.95
2020-02-28 20:06, gnu8, mpich, n2-highcpu-64, 1, 2048, 5222.84
2020-02-28 20:06, gnu8, mpich, n2-highcpu-64, 1, 4096, 7694.27
2020-02-28 20:06, gnu8, mpich, n2-highcpu-64, 1, 8192, 10999.52
2020-02-28 20:06, gnu8, mpich, n2-highcpu-64, 1, 16384, 12998.51
2020-02-28 20:06, gnu8, mpich, n2-highcpu-64, 1, 32768, 14773.42
2020-02-28 20:06, gnu8, mpich, n2-highcpu-64, 1, 65536, 8495.97
2020-02-28 20:06, gnu8, mpich, n2-highcpu-64, 1, 131072, 11585.43
2020-02-28 20:06, gnu8, mpich, n2-highcpu-64, 1, 262144, 13345.23
2020-02-28 20:06, gnu8, mpich, n2-highcpu-64, 1, 524288, 14430.10
2020-02-28 20:06, gnu8, mpich, n2-highcpu-64, 1, 1048576, 11164.90
2020-02-28 20:06, gnu8, mpich, n2-highcpu-64, 1, 2097152, 5395.83
2020-02-28 20:06, gnu8, mpich, n2-highcpu-64, 1, 4194304, 4490.11
2020-02-28 20:06, gnu8, mpich, n2-highcpu-64, 1, 1, 4.78
2020-02-28 20:06, gnu8, mpich, n2-highcpu-64, 1, 2, 9.36
2020-02-28 20:06, gnu8, mpich, n2-highcpu-64, 1, 4, 19.19
2020-02-28 20:06, gnu8, mpich, n2-highcpu-64, 1, 8, 37.95
2020-02-28 20:06, gnu8, mpich, n2-highcpu-64, 1, 16, 76.38
2020-02-28 20:06, gnu8, mpich, n2-highcpu-64, 1, 32, 149.91
2020-02-28 20:06, gnu8, mpich, n2-highcpu-64, 1, 64, 292.08
2020-02-28 20:06, gnu8, mpich, n2-highcpu-64, 1, 128, 548.61
2020-02-28 20:06, gnu8, mpich, n2-highcpu-64, 1, 256, 975.85
2020-02-28 20:06, gnu8, mpich, n2-highcpu-64, 1, 512, 1991.00
2020-02-28 20:06, gnu8, mpich, n2-highcpu-64, 1, 1024, 3400.69
2020-02-28 20:06, gnu8, mpich, n2-highcpu-64, 1, 2048, 5065.01
2020-02-28 20:06, gnu8, mpich, n2-highcpu-64, 1, 4096, 7235.53
2020-02-28 20:06, gnu8, mpich, n2-highcpu-64, 1, 8192, 10347.37
2020-02-28 20:06, gnu8, mpich, n2-highcpu-64, 1, 16384, 13359.80
2020-02-28 20:06, gnu8, mpich, n2-highcpu-64, 1, 32768, 14979.72
2020-02-28 20:06, gnu8, mpich, n2-highcpu-64, 1, 65536, 8306.43
2020-02-28 20:06, gnu8, mpich, n2-highcpu-64, 1, 131072, 11452.69
2020-02-28 20:06, gnu8, mpich, n2-highcpu-64, 1, 262144, 13259.11
2020-02-28 20:06, gnu8, mpich, n2-highcpu-64, 1, 524288, 14090.52
2020-02-28 20:06, gnu8, mpich, n2-highcpu-64, 1, 1048576, 11560.05
2020-02-28 20:06, gnu8, mpich, n2-highcpu-64, 1, 2097152, 4768.84
2020-02-28 20:06, gnu8, mpich, n2-highcpu-64, 1, 4194304, 4434.63
2020-02-28 20:06, gnu8, mpich, n2-highcpu-64, 1, 1, 4.66
2020-02-28 20:06, gnu8, mpich, n2-highcpu-64, 1, 2, 9.61
2020-02-28 20:06, gnu8, mpich, n2-highcpu-64, 1, 4, 18.69
2020-02-28 20:06, gnu8, mpich, n2-highcpu-64, 1, 8, 38.14
2020-02-28 20:06, gnu8, mpich, n2-highcpu-64, 1, 16, 73.73
2020-02-28 20:06, gnu8, mpich, n2-highcpu-64, 1, 32, 153.89
2020-02-28 20:06, gnu8, mpich, n2-highcpu-64, 1, 64, 284.72
2020-02-28 20:06, gnu8, mpich, n2-highcpu-64, 1, 128, 554.37
2020-02-28 20:06, gnu8, mpich, n2-highcpu-64, 1, 256, 1008.80
2020-02-28 20:06, gnu8, mpich, n2-highcpu-64, 1, 512, 2016.71
2020-02-28 20:06, gnu8, mpich, n2-highcpu-64, 1, 1024, 3425.70
2020-02-28 20:06, gnu8, mpich, n2-highcpu-64, 1, 2048, 5125.45
2020-02-28 20:06, gnu8, mpich, n2-highcpu-64, 1, 4096, 7446.24
2020-02-28 20:06, gnu8, mpich, n2-highcpu-64, 1, 8192, 10499.54
2020-02-28 20:06, gnu8, mpich, n2-highcpu-64, 1, 16384, 12415.09
2020-02-28 20:06, gnu8, mpich, n2-highcpu-64, 1, 32768, 14535.39
2020-02-28 20:06, gnu8, mpich, n2-highcpu-64, 1, 65536, 8476.53
2020-02-28 20:06, gnu8, mpich, n2-highcpu-64, 1, 131072, 11697.71
2020-02-28 20:06, gnu8, mpich, n2-highcpu-64, 1, 262144, 13091.37
2020-02-28 20:06, gnu8, mpich, n2-highcpu-64, 1, 524288, 14247.06
2020-02-28 20:06, gnu8, mpich, n2-highcpu-64, 1, 1048576, 11152.91
2020-02-28 20:06, gnu8, mpich, n2-highcpu-64, 1, 2097152, 4946.15
2020-02-28 20:06, gnu8, mpich, n2-highcpu-64, 1, 4194304, 4451.16
2020-02-28 20:06, gnu8, mpich, n2-highcpu-64, 1, 1, 4.59
2020-02-28 20:06, gnu8, mpich, n2-highcpu-64, 1, 2, 8.26
2020-02-28 20:06, gnu8, mpich, n2-highcpu-64, 1, 4, 18.78
2020-02-28 20:06, gnu8, mpich, n2-highcpu-64, 1, 8, 31.17
2020-02-28 20:06, gnu8, mpich, n2-highcpu-64, 1, 16, 76.79
2020-02-28 20:06, gnu8, mpich, n2-highcpu-64, 1, 32, 152.95
2020-02-28 20:06, gnu8, mpich, n2-highcpu-64, 1, 64, 280.72
2020-02-28 20:06, gnu8, mpich, n2-highcpu-64, 1, 128, 517.39
2020-02-28 20:06, gnu8, mpich, n2-highcpu-64, 1, 256, 1024.29
2020-02-28 20:06, gnu8, mpich, n2-highcpu-64, 1, 512, 2046.44
2020-02-28 20:06, gnu8, mpich, n2-highcpu-64, 1, 1024, 3454.54
2020-02-28 20:06, gnu8, mpich, n2-highcpu-64, 1, 2048, 5381.32
2020-02-28 20:06, gnu8, mpich, n2-highcpu-64, 1, 4096, 7127.65
2020-02-28 20:06, gnu8, mpich, n2-highcpu-64, 1, 8192, 10218.03
2020-02-28 20:06, gnu8, mpich, n2-highcpu-64, 1, 16384, 13101.12
2020-02-28 20:06, gnu8, mpich, n2-highcpu-64, 1, 32768, 14853.25
2020-02-28 20:06, gnu8, mpich, n2-highcpu-64, 1, 65536, 8145.10
2020-02-28 20:06, gnu8, mpich, n2-highcpu-64, 1, 131072, 10714.53
2020-02-28 20:06, gnu8, mpich, n2-highcpu-64, 1, 262144, 12705.04
2020-02-28 20:06, gnu8, mpich, n2-highcpu-64, 1, 524288, 14225.46
2020-02-28 20:06, gnu8, mpich, n2-highcpu-64, 1, 1048576, 11026.00
2020-02-28 20:06, gnu8, mpich, n2-highcpu-64, 1, 2097152, 4919.50
2020-02-28 20:06, gnu8, mpich, n2-highcpu-64, 1, 4194304, 4448.44
2020-02-28 20:06, gnu8, mpich, n2-highcpu-64, 1, 1, 4.54
2020-02-28 20:06, gnu8, mpich, n2-highcpu-64, 1, 2, 9.07
2020-02-28 20:06, gnu8, mpich, n2-highcpu-64, 1, 4, 17.19
2020-02-28 20:06, gnu8, mpich, n2-highcpu-64, 1, 8, 33.71
2020-02-28 20:06, gnu8, mpich, n2-highcpu-64, 1, 16, 69.97
2020-02-28 20:06, gnu8, mpich, n2-highcpu-64, 1, 32, 146.61
2020-02-28 20:06, gnu8, mpich, n2-highcpu-64, 1, 64, 280.95
2020-02-28 20:06, gnu8, mpich, n2-highcpu-64, 1, 128, 503.22
2020-02-28 20:06, gnu8, mpich, n2-highcpu-64, 1, 256, 1015.36
2020-02-28 20:06, gnu8, mpich, n2-highcpu-64, 1, 512, 2025.03
2020-02-28 20:06, gnu8, mpich, n2-highcpu-64, 1, 1024, 3355.85
2020-02-28 20:06, gnu8, mpich, n2-highcpu-64, 1, 2048, 4974.27
2020-02-28 20:06, gnu8, mpich, n2-highcpu-64, 1, 4096, 7422.11
2020-02-28 20:06, gnu8, mpich, n2-highcpu-64, 1, 8192, 10860.98
2020-02-28 20:06, gnu8, mpich, n2-highcpu-64, 1, 16384, 13406.63
2020-02-28 20:06, gnu8, mpich, n2-highcpu-64, 1, 32768, 14830.71
2020-02-28 20:06, gnu8, mpich, n2-highcpu-64, 1, 65536, 8228.15
2020-02-28 20:06, gnu8, mpich, n2-highcpu-64, 1, 131072, 11567.34
2020-02-28 20:06, gnu8, mpich, n2-highcpu-64, 1, 262144, 13552.00
2020-02-28 20:06, gnu8, mpich, n2-highcpu-64, 1, 524288, 14570.76
2020-02-28 20:06, gnu8, mpich, n2-highcpu-64, 1, 1048576, 12148.93
2020-02-28 20:06, gnu8, mpich, n2-highcpu-64, 1, 2097152, 5581.91
2020-02-28 20:06, gnu8, mpich, n2-highcpu-64, 1, 4194304, 4458.29
2020-02-28 20:06, gnu8, mpich, n2-highcpu-64, 1, 1, 4.18
2020-02-28 20:06, gnu8, mpich, n2-highcpu-64, 1, 2, 9.39
2020-02-28 20:06, gnu8, mpich, n2-highcpu-64, 1, 4, 19.25
2020-02-28 20:06, gnu8, mpich, n2-highcpu-64, 1, 8, 38.15
2020-02-28 20:06, gnu8, mpich, n2-highcpu-64, 1, 16, 77.68
2020-02-28 20:06, gnu8, mpich, n2-highcpu-64, 1, 32, 154.25
2020-02-28 20:06, gnu8, mpich, n2-highcpu-64, 1, 64, 294.58
2020-02-28 20:06, gnu8, mpich, n2-highcpu-64, 1, 128, 554.46
2020-02-28 20:06, gnu8, mpich, n2-highcpu-64, 1, 256, 1003.94
2020-02-28 20:06, gnu8, mpich, n2-highcpu-64, 1, 512, 2059.32
2020-02-28 20:06, gnu8, mpich, n2-highcpu-64, 1, 1024, 3442.86
2020-02-28 20:06, gnu8, mpich, n2-highcpu-64, 1, 2048, 5060.34
2020-02-28 20:06, gnu8, mpich, n2-highcpu-64, 1, 4096, 7479.67
2020-02-28 20:06, gnu8, mpich, n2-highcpu-64, 1, 8192, 10826.76
2020-02-28 20:06, gnu8, mpich, n2-highcpu-64, 1, 16384, 13388.27
2020-02-28 20:06, gnu8, mpich, n2-highcpu-64, 1, 32768, 15240.57
2020-02-28 20:06, gnu8, mpich, n2-highcpu-64, 1, 65536, 8357.93
2020-02-28 20:06, gnu8, mpich, n2-highcpu-64, 1, 131072, 11512.65
2020-02-28 20:06, gnu8, mpich, n2-highcpu-64, 1, 262144, 13382.80
2020-02-28 20:06, gnu8, mpich, n2-highcpu-64, 1, 524288, 14482.29
2020-02-28 20:06, gnu8, mpich, n2-highcpu-64, 1, 1048576, 11412.98
2020-02-28 20:06, gnu8, mpich, n2-highcpu-64, 1, 2097152, 5162.20
2020-02-28 20:06, gnu8, mpich, n2-highcpu-64, 1, 4194304, 4412.74
2020-02-28 20:06, gnu8, mpich, n2-highcpu-64, 1, 1, 4.66
2020-02-28 20:06, gnu8, mpich, n2-highcpu-64, 1, 2, 9.19
2020-02-28 20:06, gnu8, mpich, n2-highcpu-64, 1, 4, 17.58
2020-02-28 20:06, gnu8, mpich, n2-highcpu-64, 1, 8, 37.56
2020-02-28 20:06, gnu8, mpich, n2-highcpu-64, 1, 16, 74.01
2020-02-28 20:06, gnu8, mpich, n2-highcpu-64, 1, 32, 151.44
2020-02-28 20:06, gnu8, mpich, n2-highcpu-64, 1, 64, 289.76
2020-02-28 20:06, gnu8, mpich, n2-highcpu-64, 1, 128, 537.12
2020-02-28 20:06, gnu8, mpich, n2-highcpu-64, 1, 256, 991.62
2020-02-28 20:06, gnu8, mpich, n2-highcpu-64, 1, 512, 1974.70
2020-02-28 20:06, gnu8, mpich, n2-highcpu-64, 1, 1024, 3347.68
2020-02-28 20:06, gnu8, mpich, n2-highcpu-64, 1, 2048, 5376.58
2020-02-28 20:06, gnu8, mpich, n2-highcpu-64, 1, 4096, 7587.02
2020-02-28 20:06, gnu8, mpich, n2-highcpu-64, 1, 8192, 11058.15
2020-02-28 20:06, gnu8, mpich, n2-highcpu-64, 1, 16384, 13091.37
2020-02-28 20:06, gnu8, mpich, n2-highcpu-64, 1, 32768, 14602.96
2020-02-28 20:06, gnu8, mpich, n2-highcpu-64, 1, 65536, 8176.52
2020-02-28 20:06, gnu8, mpich, n2-highcpu-64, 1, 131072, 11369.42
2020-02-28 20:06, gnu8, mpich, n2-highcpu-64, 1, 262144, 13005.48
2020-02-28 20:06, gnu8, mpich, n2-highcpu-64, 1, 524288, 14013.28
2020-02-28 20:06, gnu8, mpich, n2-highcpu-64, 1, 1048576, 11828.44
2020-02-28 20:06, gnu8, mpich, n2-highcpu-64, 1, 2097152, 4387.56
2020-02-28 20:06, gnu8, mpich, n2-highcpu-64, 1, 4194304, 4423.52
2020-02-28 20:06, gnu8, mpich, n2-highcpu-64, 1, 1, 4.83
2020-02-28 20:06, gnu8, mpich, n2-highcpu-64, 1, 2, 9.80
2020-02-28 20:06, gnu8, mpich, n2-highcpu-64, 1, 4, 19.36
2020-02-28 20:06, gnu8, mpich, n2-highcpu-64, 1, 8, 39.14
2020-02-28 20:06, gnu8, mpich, n2-highcpu-64, 1, 16, 78.03
2020-02-28 20:06, gnu8, mpich, n2-highcpu-64, 1, 32, 156.81
2020-02-28 20:06, gnu8, mpich, n2-highcpu-64, 1, 64, 284.58
2020-02-28 20:06, gnu8, mpich, n2-highcpu-64, 1, 128, 560.06
2020-02-28 20:06, gnu8, mpich, n2-highcpu-64, 1, 256, 1006.44
2020-02-28 20:06, gnu8, mpich, n2-highcpu-64, 1, 512, 2017.90
2020-02-28 20:06, gnu8, mpich, n2-highcpu-64, 1, 1024, 3381.86
2020-02-28 20:06, gnu8, mpich, n2-highcpu-64, 1, 2048, 4905.47
2020-02-28 20:06, gnu8, mpich, n2-highcpu-64, 1, 4096, 7295.06
2020-02-28 20:06, gnu8, mpich, n2-highcpu-64, 1, 8192, 10514.10
2020-02-28 20:06, gnu8, mpich, n2-highcpu-64, 1, 16384, 12908.85
2020-02-28 20:06, gnu8, mpich, n2-highcpu-64, 1, 32768, 14831.96
2020-02-28 20:06, gnu8, mpich, n2-highcpu-64, 1, 65536, 8201.87
2020-02-28 20:06, gnu8, mpich, n2-highcpu-64, 1, 131072, 11098.12
2020-02-28 20:06, gnu8, mpich, n2-highcpu-64, 1, 262144, 12595.65
2020-02-28 20:06, gnu8, mpich, n2-highcpu-64, 1, 524288, 13765.07
2020-02-28 20:06, gnu8, mpich, n2-highcpu-64, 1, 1048576, 12634.63
2020-02-28 20:06, gnu8, mpich, n2-highcpu-64, 1, 2097152, 5100.21
2020-02-28 20:06, gnu8, mpich, n2-highcpu-64, 1, 4194304, 5112.00
2020-02-28 20:06, gnu8, mpich, n2-highcpu-64, 1, 1, 4.78
2020-02-28 20:06, gnu8, mpich, n2-highcpu-64, 1, 2, 9.33
2020-02-28 20:06, gnu8, mpich, n2-highcpu-64, 1, 4, 18.35
2020-02-28 20:06, gnu8, mpich, n2-highcpu-64, 1, 8, 36.66
2020-02-28 20:06, gnu8, mpich, n2-highcpu-64, 1, 16, 74.00
2020-02-28 20:06, gnu8, mpich, n2-highcpu-64, 1, 32, 142.26
2020-02-28 20:06, gnu8, mpich, n2-highcpu-64, 1, 64, 290.49
2020-02-28 20:06, gnu8, mpich, n2-highcpu-64, 1, 128, 540.59
2020-02-28 20:06, gnu8, mpich, n2-highcpu-64, 1, 256, 989.62
2020-02-28 20:06, gnu8, mpich, n2-highcpu-64, 1, 512, 1948.66
2020-02-28 20:06, gnu8, mpich, n2-highcpu-64, 1, 1024, 3335.90
2020-02-28 20:06, gnu8, mpich, n2-highcpu-64, 1, 2048, 5128.32
2020-02-28 20:06, gnu8, mpich, n2-highcpu-64, 1, 4096, 6980.14
2020-02-28 20:06, gnu8, mpich, n2-highcpu-64, 1, 8192, 10651.60
2020-02-28 20:06, gnu8, mpich, n2-highcpu-64, 1, 16384, 13351.69
2020-02-28 20:06, gnu8, mpich, n2-highcpu-64, 1, 32768, 14474.40
2020-02-28 20:06, gnu8, mpich, n2-highcpu-64, 1, 65536, 8100.28
2020-02-28 20:06, gnu8, mpich, n2-highcpu-64, 1, 131072, 11127.96
2020-02-28 20:06, gnu8, mpich, n2-highcpu-64, 1, 262144, 12682.82
2020-02-28 20:06, gnu8, mpich, n2-highcpu-64, 1, 524288, 13662.37
2020-02-28 20:06, gnu8, mpich, n2-highcpu-64, 1, 1048576, 12010.65
2020-02-28 20:06, gnu8, mpich, n2-highcpu-64, 1, 2097152, 5330.05
2020-02-28 20:06, gnu8, mpich, n2-highcpu-64, 1, 4194304, 4413.09
2020-02-28 20:06, gnu8, mpich, n2-highcpu-64, 2, 1, 0.19
2020-02-28 20:06, gnu8, mpich, n2-highcpu-64, 2, 2, 0.45
2020-02-28 20:06, gnu8, mpich, n2-highcpu-64, 2, 4, 0.96
2020-02-28 20:06, gnu8, mpich, n2-highcpu-64, 2, 8, 1.95
2020-02-28 20:06, gnu8, mpich, n2-highcpu-64, 2, 16, 3.68
2020-02-28 20:06, gnu8, mpich, n2-highcpu-64, 2, 32, 7.19
2020-02-28 20:06, gnu8, mpich, n2-highcpu-64, 2, 64, 14.25
2020-02-28 20:06, gnu8, mpich, n2-highcpu-64, 2, 128, 27.85
2020-02-28 20:06, gnu8, mpich, n2-highcpu-64, 2, 256, 51.76
2020-02-28 20:06, gnu8, mpich, n2-highcpu-64, 2, 512, 77.01
2020-02-28 20:06, gnu8, mpich, n2-highcpu-64, 2, 1024, 110.27
2020-02-28 20:06, gnu8, mpich, n2-highcpu-64, 2, 2048, 217.14
2020-02-28 20:06, gnu8, mpich, n2-highcpu-64, 2, 4096, 411.89
2020-02-28 20:06, gnu8, mpich, n2-highcpu-64, 2, 8192, 755.98
2020-02-28 20:06, gnu8, mpich, n2-highcpu-64, 2, 16384, 1261.45
2020-02-28 20:06, gnu8, mpich, n2-highcpu-64, 2, 32768, 1724.18
2020-02-28 20:06, gnu8, mpich, n2-highcpu-64, 2, 65536, 2207.59
2020-02-28 20:06, gnu8, mpich, n2-highcpu-64, 2, 131072, 2088.58
2020-02-28 20:06, gnu8, mpich, n2-highcpu-64, 2, 262144, 2368.87
2020-02-28 20:06, gnu8, mpich, n2-highcpu-64, 2, 524288, 2429.98
2020-02-28 20:06, gnu8, mpich, n2-highcpu-64, 2, 1048576, 2421.35
2020-02-28 20:06, gnu8, mpich, n2-highcpu-64, 2, 2097152, 2352.43
2020-02-28 20:06, gnu8, mpich, n2-highcpu-64, 2, 4194304, 2173.54
2020-02-28 20:06, gnu8, mpich, n2-highcpu-64, 2, 1, 0.15
2020-02-28 20:06, gnu8, mpich, n2-highcpu-64, 2, 2, 0.36
2020-02-28 20:06, gnu8, mpich, n2-highcpu-64, 2, 4, 0.73
2020-02-28 20:06, gnu8, mpich, n2-highcpu-64, 2, 8, 1.44
2020-02-28 20:06, gnu8, mpich, n2-highcpu-64, 2, 16, 2.84
2020-02-28 20:06, gnu8, mpich, n2-highcpu-64, 2, 32, 5.59
2020-02-28 20:06, gnu8, mpich, n2-highcpu-64, 2, 64, 10.88
2020-02-28 20:06, gnu8, mpich, n2-highcpu-64, 2, 128, 21.41
2020-02-28 20:06, gnu8, mpich, n2-highcpu-64, 2, 256, 44.21
2020-02-28 20:06, gnu8, mpich, n2-highcpu-64, 2, 512, 77.04
2020-02-28 20:06, gnu8, mpich, n2-highcpu-64, 2, 1024, 110.62
2020-02-28 20:06, gnu8, mpich, n2-highcpu-64, 2, 2048, 208.52
2020-02-28 20:06, gnu8, mpich, n2-highcpu-64, 2, 4096, 387.42
2020-02-28 20:06, gnu8, mpich, n2-highcpu-64, 2, 8192, 718.97
2020-02-28 20:06, gnu8, mpich, n2-highcpu-64, 2, 16384, 1189.69
2020-02-28 20:06, gnu8, mpich, n2-highcpu-64, 2, 32768, 1728.20
2020-02-28 20:06, gnu8, mpich, n2-highcpu-64, 2, 65536, 2103.47
2020-02-28 20:06, gnu8, mpich, n2-highcpu-64, 2, 131072, 2006.14
2020-02-28 20:06, gnu8, mpich, n2-highcpu-64, 2, 262144, 2102.79
2020-02-28 20:06, gnu8, mpich, n2-highcpu-64, 2, 524288, 2082.54
2020-02-28 20:06, gnu8, mpich, n2-highcpu-64, 2, 1048576, 2016.38
2020-02-28 20:06, gnu8, mpich, n2-highcpu-64, 2, 2097152, 1920.00
2020-02-28 20:06, gnu8, mpich, n2-highcpu-64, 2, 4194304, 1912.34
2020-02-28 20:06, gnu8, mpich, n2-highcpu-64, 2, 1, 0.19
2020-02-28 20:06, gnu8, mpich, n2-highcpu-64, 2, 2, 0.46
2020-02-28 20:06, gnu8, mpich, n2-highcpu-64, 2, 4, 0.97
2020-02-28 20:06, gnu8, mpich, n2-highcpu-64, 2, 8, 1.94
2020-02-28 20:06, gnu8, mpich, n2-highcpu-64, 2, 16, 3.74
2020-02-28 20:06, gnu8, mpich, n2-highcpu-64, 2, 32, 7.22
2020-02-28 20:06, gnu8, mpich, n2-highcpu-64, 2, 64, 14.86
2020-02-28 20:06, gnu8, mpich, n2-highcpu-64, 2, 128, 29.14
2020-02-28 20:06, gnu8, mpich, n2-highcpu-64, 2, 256, 57.71
2020-02-28 20:06, gnu8, mpich, n2-highcpu-64, 2, 512, 83.72
2020-02-28 20:06, gnu8, mpich, n2-highcpu-64, 2, 1024, 116.60
2020-02-28 20:06, gnu8, mpich, n2-highcpu-64, 2, 2048, 246.25
2020-02-28 20:06, gnu8, mpich, n2-highcpu-64, 2, 4096, 469.28
2020-02-28 20:06, gnu8, mpich, n2-highcpu-64, 2, 8192, 899.06
2020-02-28 20:06, gnu8, mpich, n2-highcpu-64, 2, 16384, 1464.82
2020-02-28 20:06, gnu8, mpich, n2-highcpu-64, 2, 32768, 1881.34
2020-02-28 20:06, gnu8, mpich, n2-highcpu-64, 2, 65536, 2302.81
2020-02-28 20:06, gnu8, mpich, n2-highcpu-64, 2, 131072, 2490.75
2020-02-28 20:06, gnu8, mpich, n2-highcpu-64, 2, 262144, 2606.55
2020-02-28 20:06, gnu8, mpich, n2-highcpu-64, 2, 524288, 3176.39
2020-02-28 20:06, gnu8, mpich, n2-highcpu-64, 2, 1048576, 2961.21
2020-02-28 20:06, gnu8, mpich, n2-highcpu-64, 2, 2097152, 2576.71
2020-02-28 20:06, gnu8, mpich, n2-highcpu-64, 2, 4194304, 2375.60
2020-02-28 20:06, gnu8, mpich, n2-highcpu-64, 2, 1, 0.18
2020-02-28 20:06, gnu8, mpich, n2-highcpu-64, 2, 2, 0.40
2020-02-28 20:06, gnu8, mpich, n2-highcpu-64, 2, 4, 0.84
2020-02-28 20:06, gnu8, mpich, n2-highcpu-64, 2, 8, 1.69
2020-02-28 20:06, gnu8, mpich, n2-highcpu-64, 2, 16, 3.26
2020-02-28 20:06, gnu8, mpich, n2-highcpu-64, 2, 32, 6.35
2020-02-28 20:06, gnu8, mpich, n2-highcpu-64, 2, 64, 12.88
2020-02-28 20:06, gnu8, mpich, n2-highcpu-64, 2, 128, 26.57
2020-02-28 20:06, gnu8, mpich, n2-highcpu-64, 2, 256, 53.31
2020-02-28 20:06, gnu8, mpich, n2-highcpu-64, 2, 512, 98.18
2020-02-28 20:06, gnu8, mpich, n2-highcpu-64, 2, 1024, 136.59
2020-02-28 20:06, gnu8, mpich, n2-highcpu-64, 2, 2048, 256.94
2020-02-28 20:06, gnu8, mpich, n2-highcpu-64, 2, 4096, 474.68
2020-02-28 20:06, gnu8, mpich, n2-highcpu-64, 2, 8192, 899.86
2020-02-28 20:06, gnu8, mpich, n2-highcpu-64, 2, 16384, 1581.80
2020-02-28 20:06, gnu8, mpich, n2-highcpu-64, 2, 32768, 2414.39
2020-02-28 20:06, gnu8, mpich, n2-highcpu-64, 2, 65536, 2976.61
2020-02-28 20:06, gnu8, mpich, n2-highcpu-64, 2, 131072, 2431.40
2020-02-28 20:06, gnu8, mpich, n2-highcpu-64, 2, 262144, 2436.49
2020-02-28 20:06, gnu8, mpich, n2-highcpu-64, 2, 524288, 2937.05
2020-02-28 20:06, gnu8, mpich, n2-highcpu-64, 2, 1048576, 2863.37
2020-02-28 20:06, gnu8, mpich, n2-highcpu-64, 2, 2097152, 2498.40
2020-02-28 20:06, gnu8, mpich, n2-highcpu-64, 2, 4194304, 2415.20
2020-02-28 20:06, gnu8, mpich, n2-highcpu-64, 2, 1, 0.16
2020-02-28 20:06, gnu8, mpich, n2-highcpu-64, 2, 2, 0.34
2020-02-28 20:06, gnu8, mpich, n2-highcpu-64, 2, 4, 0.70
2020-02-28 20:06, gnu8, mpich, n2-highcpu-64, 2, 8, 1.43
2020-02-28 20:06, gnu8, mpich, n2-highcpu-64, 2, 16, 2.72
2020-02-28 20:06, gnu8, mpich, n2-highcpu-64, 2, 32, 5.52
2020-02-28 20:06, gnu8, mpich, n2-highcpu-64, 2, 64, 10.32
2020-02-28 20:06, gnu8, mpich, n2-highcpu-64, 2, 128, 19.69
2020-02-28 20:06, gnu8, mpich, n2-highcpu-64, 2, 256, 39.53
2020-02-28 20:06, gnu8, mpich, n2-highcpu-64, 2, 512, 74.16
2020-02-28 20:06, gnu8, mpich, n2-highcpu-64, 2, 1024, 102.97
2020-02-28 20:06, gnu8, mpich, n2-highcpu-64, 2, 2048, 185.48
2020-02-28 20:06, gnu8, mpich, n2-highcpu-64, 2, 4096, 353.86
2020-02-28 20:06, gnu8, mpich, n2-highcpu-64, 2, 8192, 647.25
2020-02-28 20:06, gnu8, mpich, n2-highcpu-64, 2, 16384, 1115.45
2020-02-28 20:06, gnu8, mpich, n2-highcpu-64, 2, 32768, 1595.81
2020-02-28 20:06, gnu8, mpich, n2-highcpu-64, 2, 65536, 2097.25
2020-02-28 20:06, gnu8, mpich, n2-highcpu-64, 2, 131072, 2144.41
2020-02-28 20:06, gnu8, mpich, n2-highcpu-64, 2, 262144, 2459.64
2020-02-28 20:06, gnu8, mpich, n2-highcpu-64, 2, 524288, 2569.05
2020-02-28 20:06, gnu8, mpich, n2-highcpu-64, 2, 1048576, 1955.67
2020-02-28 20:06, gnu8, mpich, n2-highcpu-64, 2, 2097152, 1895.14
2020-02-28 20:06, gnu8, mpich, n2-highcpu-64, 2, 4194304, 1869.37
2020-02-28 20:06, gnu8, mpich, n2-highcpu-64, 2, 1, 0.17
2020-02-28 20:06, gnu8, mpich, n2-highcpu-64, 2, 2, 0.41
2020-02-28 20:06, gnu8, mpich, n2-highcpu-64, 2, 4, 0.84
2020-02-28 20:06, gnu8, mpich, n2-highcpu-64, 2, 8, 1.69
2020-02-28 20:06, gnu8, mpich, n2-highcpu-64, 2, 16, 3.32
2020-02-28 20:06, gnu8, mpich, n2-highcpu-64, 2, 32, 6.56
2020-02-28 20:06, gnu8, mpich, n2-highcpu-64, 2, 64, 13.22
2020-02-28 20:06, gnu8, mpich, n2-highcpu-64, 2, 128, 26.62
2020-02-28 20:06, gnu8, mpich, n2-highcpu-64, 2, 256, 53.66
2020-02-28 20:06, gnu8, mpich, n2-highcpu-64, 2, 512, 89.04
2020-02-28 20:06, gnu8, mpich, n2-highcpu-64, 2, 1024, 119.69
2020-02-28 20:06, gnu8, mpich, n2-highcpu-64, 2, 2048, 223.05
2020-02-28 20:06, gnu8, mpich, n2-highcpu-64, 2, 4096, 413.19
2020-02-28 20:06, gnu8, mpich, n2-highcpu-64, 2, 8192, 778.20
2020-02-28 20:06, gnu8, mpich, n2-highcpu-64, 2, 16384, 1257.12
2020-02-28 20:06, gnu8, mpich, n2-highcpu-64, 2, 32768, 1664.26
2020-02-28 20:06, gnu8, mpich, n2-highcpu-64, 2, 65536, 2029.37
2020-02-28 20:06, gnu8, mpich, n2-highcpu-64, 2, 131072, 2491.16
2020-02-28 20:06, gnu8, mpich, n2-highcpu-64, 2, 262144, 2829.28
2020-02-28 20:06, gnu8, mpich, n2-highcpu-64, 2, 524288, 2844.78
2020-02-28 20:06, gnu8, mpich, n2-highcpu-64, 2, 1048576, 2406.78
2020-02-28 20:06, gnu8, mpich, n2-highcpu-64, 2, 2097152, 2291.05
2020-02-28 20:06, gnu8, mpich, n2-highcpu-64, 2, 4194304, 2165.01
2020-02-28 20:06, gnu8, mpich, n2-highcpu-64, 2, 1, 0.14
2020-02-28 20:06, gnu8, mpich, n2-highcpu-64, 2, 2, 0.32
2020-02-28 20:06, gnu8, mpich, n2-highcpu-64, 2, 4, 0.64
2020-02-28 20:06, gnu8, mpich, n2-highcpu-64, 2, 8, 1.26
2020-02-28 20:06, gnu8, mpich, n2-highcpu-64, 2, 16, 2.58
2020-02-28 20:06, gnu8, mpich, n2-highcpu-64, 2, 32, 5.54
2020-02-28 20:06, gnu8, mpich, n2-highcpu-64, 2, 64, 10.77
2020-02-28 20:06, gnu8, mpich, n2-highcpu-64, 2, 128, 20.45
2020-02-28 20:06, gnu8, mpich, n2-highcpu-64, 2, 256, 39.27
2020-02-28 20:06, gnu8, mpich, n2-highcpu-64, 2, 512, 74.31
2020-02-28 20:06, gnu8, mpich, n2-highcpu-64, 2, 1024, 109.08
2020-02-28 20:06, gnu8, mpich, n2-highcpu-64, 2, 2048, 203.44
2020-02-28 20:06, gnu8, mpich, n2-highcpu-64, 2, 4096, 371.09
2020-02-28 20:06, gnu8, mpich, n2-highcpu-64, 2, 8192, 665.59
2020-02-28 20:06, gnu8, mpich, n2-highcpu-64, 2, 16384, 1175.95
2020-02-28 20:06, gnu8, mpich, n2-highcpu-64, 2, 32768, 1693.27
2020-02-28 20:06, gnu8, mpich, n2-highcpu-64, 2, 65536, 2146.87
2020-02-28 20:06, gnu8, mpich, n2-highcpu-64, 2, 131072, 2120.37
2020-02-28 20:06, gnu8, mpich, n2-highcpu-64, 2, 262144, 2192.88
2020-02-28 20:06, gnu8, mpich, n2-highcpu-64, 2, 524288, 2448.77
2020-02-28 20:06, gnu8, mpich, n2-highcpu-64, 2, 1048576, 2012.86
2020-02-28 20:06, gnu8, mpich, n2-highcpu-64, 2, 2097152, 1933.27
2020-02-28 20:06, gnu8, mpich, n2-highcpu-64, 2, 4194304, 1932.65
2020-02-28 20:06, gnu8, mpich, n2-highcpu-64, 2, 1, 0.15
2020-02-28 20:06, gnu8, mpich, n2-highcpu-64, 2, 2, 0.35
2020-02-28 20:06, gnu8, mpich, n2-highcpu-64, 2, 4, 0.71
2020-02-28 20:06, gnu8, mpich, n2-highcpu-64, 2, 8, 1.41
2020-02-28 20:06, gnu8, mpich, n2-highcpu-64, 2, 16, 2.82
2020-02-28 20:06, gnu8, mpich, n2-highcpu-64, 2, 32, 5.64
2020-02-28 20:06, gnu8, mpich, n2-highcpu-64, 2, 64, 11.09
2020-02-28 20:06, gnu8, mpich, n2-highcpu-64, 2, 128, 22.35
2020-02-28 20:06, gnu8, mpich, n2-highcpu-64, 2, 256, 43.54
2020-02-28 20:06, gnu8, mpich, n2-highcpu-64, 2, 512, 85.58
2020-02-28 20:06, gnu8, mpich, n2-highcpu-64, 2, 1024, 132.16
2020-02-28 20:06, gnu8, mpich, n2-highcpu-64, 2, 2048, 253.70
2020-02-28 20:06, gnu8, mpich, n2-highcpu-64, 2, 4096, 473.01
2020-02-28 20:06, gnu8, mpich, n2-highcpu-64, 2, 8192, 841.54
2020-02-28 20:06, gnu8, mpich, n2-highcpu-64, 2, 16384, 892.62
2020-02-28 20:06, gnu8, mpich, n2-highcpu-64, 2, 32768, 1450.44
2020-02-28 20:06, gnu8, mpich, n2-highcpu-64, 2, 65536, 1744.88
2020-02-28 20:06, gnu8, mpich, n2-highcpu-64, 2, 131072, 2201.25
2020-02-28 20:06, gnu8, mpich, n2-highcpu-64, 2, 262144, 2627.15
2020-02-28 20:06, gnu8, mpich, n2-highcpu-64, 2, 524288, 2239.66
2020-02-28 20:06, gnu8, mpich, n2-highcpu-64, 2, 1048576, 1933.83
2020-02-28 20:06, gnu8, mpich, n2-highcpu-64, 2, 2097152, 1916.61
2020-02-28 20:06, gnu8, mpich, n2-highcpu-64, 2, 4194304, 1881.15
2020-02-28 20:06, gnu8, mpich, n2-highcpu-64, 2, 1, 0.18
2020-02-28 20:06, gnu8, mpich, n2-highcpu-64, 2, 2, 0.37
2020-02-28 20:06, gnu8, mpich, n2-highcpu-64, 2, 4, 0.72
2020-02-28 20:06, gnu8, mpich, n2-highcpu-64, 2, 8, 1.47
2020-02-28 20:06, gnu8, mpich, n2-highcpu-64, 2, 16, 2.90
2020-02-28 20:06, gnu8, mpich, n2-highcpu-64, 2, 32, 5.82
2020-02-28 20:06, gnu8, mpich, n2-highcpu-64, 2, 64, 11.36
2020-02-28 20:06, gnu8, mpich, n2-highcpu-64, 2, 128, 23.01
2020-02-28 20:06, gnu8, mpich, n2-highcpu-64, 2, 256, 45.44
2020-02-28 20:06, gnu8, mpich, n2-highcpu-64, 2, 512, 85.60
2020-02-28 20:06, gnu8, mpich, n2-highcpu-64, 2, 1024, 124.54
2020-02-28 20:06, gnu8, mpich, n2-highcpu-64, 2, 2048, 214.94
2020-02-28 20:06, gnu8, mpich, n2-highcpu-64, 2, 4096, 392.08
2020-02-28 20:06, gnu8, mpich, n2-highcpu-64, 2, 8192, 696.22
2020-02-28 20:06, gnu8, mpich, n2-highcpu-64, 2, 16384, 1152.92
2020-02-28 20:06, gnu8, mpich, n2-highcpu-64, 2, 32768, 1109.32
2020-02-28 20:06, gnu8, mpich, n2-highcpu-64, 2, 65536, 1125.27
2020-02-28 20:06, gnu8, mpich, n2-highcpu-64, 2, 131072, 1285.69
2020-02-28 20:06, gnu8, mpich, n2-highcpu-64, 2, 262144, 2197.26
2020-02-28 20:06, gnu8, mpich, n2-highcpu-64, 2, 524288, 2124.93
2020-02-28 20:06, gnu8, mpich, n2-highcpu-64, 2, 1048576, 1942.59
2020-02-28 20:06, gnu8, mpich, n2-highcpu-64, 2, 2097152, 1836.51
2020-02-28 20:06, gnu8, mpich, n2-highcpu-64, 2, 4194304, 1828.93
2020-02-28 20:06, gnu8, mpich, n2-highcpu-64, 2, 1, 0.14
2020-02-28 20:06, gnu8, mpich, n2-highcpu-64, 2, 2, 0.31
2020-02-28 20:06, gnu8, mpich, n2-highcpu-64, 2, 4, 0.60
2020-02-28 20:06, gnu8, mpich, n2-highcpu-64, 2, 8, 1.33
2020-02-28 20:06, gnu8, mpich, n2-highcpu-64, 2, 16, 2.77
2020-02-28 20:06, gnu8, mpich, n2-highcpu-64, 2, 32, 5.52
2020-02-28 20:06, gnu8, mpich, n2-highcpu-64, 2, 64, 10.84
2020-02-28 20:06, gnu8, mpich, n2-highcpu-64, 2, 128, 21.65
2020-02-28 20:06, gnu8, mpich, n2-highcpu-64, 2, 256, 38.56
2020-02-28 20:06, gnu8, mpich, n2-highcpu-64, 2, 512, 74.36
2020-02-28 20:06, gnu8, mpich, n2-highcpu-64, 2, 1024, 119.42
2020-02-28 20:06, gnu8, mpich, n2-highcpu-64, 2, 2048, 209.38
2020-02-28 20:06, gnu8, mpich, n2-highcpu-64, 2, 4096, 396.40
2020-02-28 20:06, gnu8, mpich, n2-highcpu-64, 2, 8192, 722.91
2020-02-28 20:06, gnu8, mpich, n2-highcpu-64, 2, 16384, 1136.77
2020-02-28 20:06, gnu8, mpich, n2-highcpu-64, 2, 32768, 1777.04
2020-02-28 20:06, gnu8, mpich, n2-highcpu-64, 2, 65536, 2220.07
2020-02-28 20:06, gnu8, mpich, n2-highcpu-64, 2, 131072, 2505.13
2020-02-28 20:06, gnu8, mpich, n2-highcpu-64, 2, 262144, 2582.69
2020-02-28 20:06, gnu8, mpich, n2-highcpu-64, 2, 524288, 2613.49
2020-02-28 20:06, gnu8, mpich, n2-highcpu-64, 2, 1048576, 2118.26
2020-02-28 20:06, gnu8, mpich, n2-highcpu-64, 2, 2097152, 2048.01
2020-02-28 20:06, gnu8, mpich, n2-highcpu-64, 2, 4194304, 1952.03
