date, compiler, mpi, machine_type, n_nodes, packet_size, latency 
2020-02-26 22:19, gnu8, mpich, n1-standard-16, 1, 0, 0.32
2020-02-26 22:19, gnu8, mpich, n1-standard-16, 1, 1, 0.38
2020-02-26 22:19, gnu8, mpich, n1-standard-16, 1, 2, 0.37
2020-02-26 22:19, gnu8, mpich, n1-standard-16, 1, 4, 0.39
2020-02-26 22:19, gnu8, mpich, n1-standard-16, 1, 8, 0.38
2020-02-26 22:19, gnu8, mpich, n1-standard-16, 1, 16, 0.40
2020-02-26 22:19, gnu8, mpich, n1-standard-16, 1, 32, 0.41
2020-02-26 22:19, gnu8, mpich, n1-standard-16, 1, 64, 0.44
2020-02-26 22:19, gnu8, mpich, n1-standard-16, 1, 128, 0.45
2020-02-26 22:19, gnu8, mpich, n1-standard-16, 1, 256, 0.50
2020-02-26 22:19, gnu8, mpich, n1-standard-16, 1, 512, 0.57
2020-02-26 22:19, gnu8, mpich, n1-standard-16, 1, 1024, 0.75
2020-02-26 22:19, gnu8, mpich, n1-standard-16, 1, 2048, 0.95
2020-02-26 22:19, gnu8, mpich, n1-standard-16, 1, 4096, 1.39
2020-02-26 22:19, gnu8, mpich, n1-standard-16, 1, 8192, 2.25
2020-02-26 22:19, gnu8, mpich, n1-standard-16, 1, 16384, 4.02
2020-02-26 22:19, gnu8, mpich, n1-standard-16, 1, 32768, 6.60
2020-02-26 22:19, gnu8, mpich, n1-standard-16, 1, 65536, 10.12
2020-02-26 22:19, gnu8, mpich, n1-standard-16, 1, 131072, 15.61
2020-02-26 22:19, gnu8, mpich, n1-standard-16, 1, 262144, 28.78
2020-02-26 22:19, gnu8, mpich, n1-standard-16, 1, 524288, 57.89
2020-02-26 22:19, gnu8, mpich, n1-standard-16, 1, 1048576, 117.20
2020-02-26 22:19, gnu8, mpich, n1-standard-16, 1, 2097152, 228.80
2020-02-26 22:19, gnu8, mpich, n1-standard-16, 1, 4194304, 486.26
2020-02-26 22:19, gnu8, mpich, n1-standard-16, 1, 0, 0.32
2020-02-26 22:19, gnu8, mpich, n1-standard-16, 1, 1, 0.39
2020-02-26 22:19, gnu8, mpich, n1-standard-16, 1, 2, 0.38
2020-02-26 22:19, gnu8, mpich, n1-standard-16, 1, 4, 0.40
2020-02-26 22:19, gnu8, mpich, n1-standard-16, 1, 8, 0.39
2020-02-26 22:19, gnu8, mpich, n1-standard-16, 1, 16, 0.42
2020-02-26 22:19, gnu8, mpich, n1-standard-16, 1, 32, 0.44
2020-02-26 22:19, gnu8, mpich, n1-standard-16, 1, 64, 0.44
2020-02-26 22:19, gnu8, mpich, n1-standard-16, 1, 128, 0.48
2020-02-26 22:19, gnu8, mpich, n1-standard-16, 1, 256, 0.50
2020-02-26 22:19, gnu8, mpich, n1-standard-16, 1, 512, 0.57
2020-02-26 22:19, gnu8, mpich, n1-standard-16, 1, 1024, 0.72
2020-02-26 22:19, gnu8, mpich, n1-standard-16, 1, 2048, 0.95
2020-02-26 22:19, gnu8, mpich, n1-standard-16, 1, 4096, 1.41
2020-02-26 22:19, gnu8, mpich, n1-standard-16, 1, 8192, 2.28
2020-02-26 22:19, gnu8, mpich, n1-standard-16, 1, 16384, 4.05
2020-02-26 22:19, gnu8, mpich, n1-standard-16, 1, 32768, 6.66
2020-02-26 22:19, gnu8, mpich, n1-standard-16, 1, 65536, 10.46
2020-02-26 22:19, gnu8, mpich, n1-standard-16, 1, 131072, 15.33
2020-02-26 22:19, gnu8, mpich, n1-standard-16, 1, 262144, 27.11
2020-02-26 22:19, gnu8, mpich, n1-standard-16, 1, 524288, 57.95
2020-02-26 22:19, gnu8, mpich, n1-standard-16, 1, 1048576, 117.08
2020-02-26 22:19, gnu8, mpich, n1-standard-16, 1, 2097152, 233.27
2020-02-26 22:19, gnu8, mpich, n1-standard-16, 1, 4194304, 511.65
2020-02-26 22:19, gnu8, mpich, n1-standard-16, 1, 0, 0.32
2020-02-26 22:19, gnu8, mpich, n1-standard-16, 1, 1, 0.40
2020-02-26 22:19, gnu8, mpich, n1-standard-16, 1, 2, 0.40
2020-02-26 22:19, gnu8, mpich, n1-standard-16, 1, 4, 0.40
2020-02-26 22:19, gnu8, mpich, n1-standard-16, 1, 8, 0.39
2020-02-26 22:19, gnu8, mpich, n1-standard-16, 1, 16, 0.42
2020-02-26 22:19, gnu8, mpich, n1-standard-16, 1, 32, 0.46
2020-02-26 22:19, gnu8, mpich, n1-standard-16, 1, 64, 0.45
2020-02-26 22:19, gnu8, mpich, n1-standard-16, 1, 128, 0.47
2020-02-26 22:19, gnu8, mpich, n1-standard-16, 1, 256, 0.51
2020-02-26 22:19, gnu8, mpich, n1-standard-16, 1, 512, 0.60
2020-02-26 22:19, gnu8, mpich, n1-standard-16, 1, 1024, 0.74
2020-02-26 22:19, gnu8, mpich, n1-standard-16, 1, 2048, 0.96
2020-02-26 22:19, gnu8, mpich, n1-standard-16, 1, 4096, 1.42
2020-02-26 22:19, gnu8, mpich, n1-standard-16, 1, 8192, 2.29
2020-02-26 22:19, gnu8, mpich, n1-standard-16, 1, 16384, 4.19
2020-02-26 22:19, gnu8, mpich, n1-standard-16, 1, 32768, 6.72
2020-02-26 22:19, gnu8, mpich, n1-standard-16, 1, 65536, 10.59
2020-02-26 22:19, gnu8, mpich, n1-standard-16, 1, 131072, 16.02
2020-02-26 22:19, gnu8, mpich, n1-standard-16, 1, 262144, 27.96
2020-02-26 22:19, gnu8, mpich, n1-standard-16, 1, 524288, 58.15
2020-02-26 22:19, gnu8, mpich, n1-standard-16, 1, 1048576, 116.23
2020-02-26 22:19, gnu8, mpich, n1-standard-16, 1, 2097152, 227.81
2020-02-26 22:19, gnu8, mpich, n1-standard-16, 1, 4194304, 479.13
2020-02-26 22:19, gnu8, mpich, n1-standard-16, 1, 0, 0.30
2020-02-26 22:19, gnu8, mpich, n1-standard-16, 1, 1, 0.40
2020-02-26 22:19, gnu8, mpich, n1-standard-16, 1, 2, 0.37
2020-02-26 22:19, gnu8, mpich, n1-standard-16, 1, 4, 0.38
2020-02-26 22:19, gnu8, mpich, n1-standard-16, 1, 8, 0.38
2020-02-26 22:19, gnu8, mpich, n1-standard-16, 1, 16, 0.40
2020-02-26 22:19, gnu8, mpich, n1-standard-16, 1, 32, 0.40
2020-02-26 22:19, gnu8, mpich, n1-standard-16, 1, 64, 0.42
2020-02-26 22:19, gnu8, mpich, n1-standard-16, 1, 128, 0.44
2020-02-26 22:19, gnu8, mpich, n1-standard-16, 1, 256, 0.49
2020-02-26 22:19, gnu8, mpich, n1-standard-16, 1, 512, 0.57
2020-02-26 22:19, gnu8, mpich, n1-standard-16, 1, 1024, 0.73
2020-02-26 22:19, gnu8, mpich, n1-standard-16, 1, 2048, 0.97
2020-02-26 22:19, gnu8, mpich, n1-standard-16, 1, 4096, 1.45
2020-02-26 22:19, gnu8, mpich, n1-standard-16, 1, 8192, 2.36
2020-02-26 22:19, gnu8, mpich, n1-standard-16, 1, 16384, 4.07
2020-02-26 22:19, gnu8, mpich, n1-standard-16, 1, 32768, 6.62
2020-02-26 22:19, gnu8, mpich, n1-standard-16, 1, 65536, 10.65
2020-02-26 22:19, gnu8, mpich, n1-standard-16, 1, 131072, 16.24
2020-02-26 22:19, gnu8, mpich, n1-standard-16, 1, 262144, 28.40
2020-02-26 22:19, gnu8, mpich, n1-standard-16, 1, 524288, 57.76
2020-02-26 22:19, gnu8, mpich, n1-standard-16, 1, 1048576, 114.99
2020-02-26 22:19, gnu8, mpich, n1-standard-16, 1, 2097152, 222.60
2020-02-26 22:19, gnu8, mpich, n1-standard-16, 1, 4194304, 487.24
2020-02-26 22:19, gnu8, mpich, n1-standard-16, 1, 0, 0.31
2020-02-26 22:19, gnu8, mpich, n1-standard-16, 1, 1, 0.39
2020-02-26 22:19, gnu8, mpich, n1-standard-16, 1, 2, 0.35
2020-02-26 22:19, gnu8, mpich, n1-standard-16, 1, 4, 0.40
2020-02-26 22:19, gnu8, mpich, n1-standard-16, 1, 8, 0.37
2020-02-26 22:19, gnu8, mpich, n1-standard-16, 1, 16, 0.40
2020-02-26 22:19, gnu8, mpich, n1-standard-16, 1, 32, 0.39
2020-02-26 22:19, gnu8, mpich, n1-standard-16, 1, 64, 0.41
2020-02-26 22:19, gnu8, mpich, n1-standard-16, 1, 128, 0.43
2020-02-26 22:19, gnu8, mpich, n1-standard-16, 1, 256, 0.47
2020-02-26 22:19, gnu8, mpich, n1-standard-16, 1, 512, 0.56
2020-02-26 22:19, gnu8, mpich, n1-standard-16, 1, 1024, 0.71
2020-02-26 22:19, gnu8, mpich, n1-standard-16, 1, 2048, 0.98
2020-02-26 22:19, gnu8, mpich, n1-standard-16, 1, 4096, 1.42
2020-02-26 22:19, gnu8, mpich, n1-standard-16, 1, 8192, 2.29
2020-02-26 22:19, gnu8, mpich, n1-standard-16, 1, 16384, 4.10
2020-02-26 22:19, gnu8, mpich, n1-standard-16, 1, 32768, 6.90
2020-02-26 22:19, gnu8, mpich, n1-standard-16, 1, 65536, 10.42
2020-02-26 22:19, gnu8, mpich, n1-standard-16, 1, 131072, 16.09
2020-02-26 22:19, gnu8, mpich, n1-standard-16, 1, 262144, 27.65
2020-02-26 22:19, gnu8, mpich, n1-standard-16, 1, 524288, 57.01
2020-02-26 22:19, gnu8, mpich, n1-standard-16, 1, 1048576, 119.20
2020-02-26 22:19, gnu8, mpich, n1-standard-16, 1, 2097152, 238.40
2020-02-26 22:19, gnu8, mpich, n1-standard-16, 1, 4194304, 481.34
2020-02-26 22:19, gnu8, mpich, n1-standard-16, 1, 0, 0.32
2020-02-26 22:19, gnu8, mpich, n1-standard-16, 1, 1, 0.34
2020-02-26 22:19, gnu8, mpich, n1-standard-16, 1, 2, 0.36
2020-02-26 22:19, gnu8, mpich, n1-standard-16, 1, 4, 0.38
2020-02-26 22:19, gnu8, mpich, n1-standard-16, 1, 8, 0.36
2020-02-26 22:19, gnu8, mpich, n1-standard-16, 1, 16, 0.41
2020-02-26 22:19, gnu8, mpich, n1-standard-16, 1, 32, 0.42
2020-02-26 22:19, gnu8, mpich, n1-standard-16, 1, 64, 0.40
2020-02-26 22:19, gnu8, mpich, n1-standard-16, 1, 128, 0.42
2020-02-26 22:19, gnu8, mpich, n1-standard-16, 1, 256, 0.48
2020-02-26 22:19, gnu8, mpich, n1-standard-16, 1, 512, 0.59
2020-02-26 22:19, gnu8, mpich, n1-standard-16, 1, 1024, 0.70
2020-02-26 22:19, gnu8, mpich, n1-standard-16, 1, 2048, 0.95
2020-02-26 22:19, gnu8, mpich, n1-standard-16, 1, 4096, 1.38
2020-02-26 22:19, gnu8, mpich, n1-standard-16, 1, 8192, 2.25
2020-02-26 22:19, gnu8, mpich, n1-standard-16, 1, 16384, 4.13
2020-02-26 22:19, gnu8, mpich, n1-standard-16, 1, 32768, 6.87
2020-02-26 22:19, gnu8, mpich, n1-standard-16, 1, 65536, 10.36
2020-02-26 22:19, gnu8, mpich, n1-standard-16, 1, 131072, 15.17
2020-02-26 22:19, gnu8, mpich, n1-standard-16, 1, 262144, 28.62
2020-02-26 22:19, gnu8, mpich, n1-standard-16, 1, 524288, 58.27
2020-02-26 22:19, gnu8, mpich, n1-standard-16, 1, 1048576, 117.74
2020-02-26 22:19, gnu8, mpich, n1-standard-16, 1, 2097152, 225.93
2020-02-26 22:19, gnu8, mpich, n1-standard-16, 1, 4194304, 475.61
2020-02-26 22:19, gnu8, mpich, n1-standard-16, 1, 0, 0.31
2020-02-26 22:19, gnu8, mpich, n1-standard-16, 1, 1, 0.37
2020-02-26 22:19, gnu8, mpich, n1-standard-16, 1, 2, 0.37
2020-02-26 22:19, gnu8, mpich, n1-standard-16, 1, 4, 0.39
2020-02-26 22:19, gnu8, mpich, n1-standard-16, 1, 8, 0.36
2020-02-26 22:19, gnu8, mpich, n1-standard-16, 1, 16, 0.39
2020-02-26 22:19, gnu8, mpich, n1-standard-16, 1, 32, 0.41
2020-02-26 22:19, gnu8, mpich, n1-standard-16, 1, 64, 0.39
2020-02-26 22:19, gnu8, mpich, n1-standard-16, 1, 128, 0.43
2020-02-26 22:19, gnu8, mpich, n1-standard-16, 1, 256, 0.49
2020-02-26 22:19, gnu8, mpich, n1-standard-16, 1, 512, 0.55
2020-02-26 22:19, gnu8, mpich, n1-standard-16, 1, 1024, 0.72
2020-02-26 22:19, gnu8, mpich, n1-standard-16, 1, 2048, 0.94
2020-02-26 22:19, gnu8, mpich, n1-standard-16, 1, 4096, 1.35
2020-02-26 22:19, gnu8, mpich, n1-standard-16, 1, 8192, 2.27
2020-02-26 22:19, gnu8, mpich, n1-standard-16, 1, 16384, 4.06
2020-02-26 22:19, gnu8, mpich, n1-standard-16, 1, 32768, 6.67
2020-02-26 22:19, gnu8, mpich, n1-standard-16, 1, 65536, 10.63
2020-02-26 22:19, gnu8, mpich, n1-standard-16, 1, 131072, 15.99
2020-02-26 22:19, gnu8, mpich, n1-standard-16, 1, 262144, 28.47
2020-02-26 22:19, gnu8, mpich, n1-standard-16, 1, 524288, 57.32
2020-02-26 22:19, gnu8, mpich, n1-standard-16, 1, 1048576, 113.44
2020-02-26 22:19, gnu8, mpich, n1-standard-16, 1, 2097152, 227.08
2020-02-26 22:19, gnu8, mpich, n1-standard-16, 1, 4194304, 474.47
2020-02-26 22:19, gnu8, mpich, n1-standard-16, 1, 0, 0.30
2020-02-26 22:19, gnu8, mpich, n1-standard-16, 1, 1, 0.35
2020-02-26 22:19, gnu8, mpich, n1-standard-16, 1, 2, 0.34
2020-02-26 22:19, gnu8, mpich, n1-standard-16, 1, 4, 0.37
2020-02-26 22:19, gnu8, mpich, n1-standard-16, 1, 8, 0.34
2020-02-26 22:19, gnu8, mpich, n1-standard-16, 1, 16, 0.38
2020-02-26 22:19, gnu8, mpich, n1-standard-16, 1, 32, 0.40
2020-02-26 22:19, gnu8, mpich, n1-standard-16, 1, 64, 0.41
2020-02-26 22:19, gnu8, mpich, n1-standard-16, 1, 128, 0.46
2020-02-26 22:19, gnu8, mpich, n1-standard-16, 1, 256, 0.44
2020-02-26 22:19, gnu8, mpich, n1-standard-16, 1, 512, 0.56
2020-02-26 22:19, gnu8, mpich, n1-standard-16, 1, 1024, 0.70
2020-02-26 22:19, gnu8, mpich, n1-standard-16, 1, 2048, 0.96
2020-02-26 22:19, gnu8, mpich, n1-standard-16, 1, 4096, 1.40
2020-02-26 22:19, gnu8, mpich, n1-standard-16, 1, 8192, 2.31
2020-02-26 22:19, gnu8, mpich, n1-standard-16, 1, 16384, 4.09
2020-02-26 22:19, gnu8, mpich, n1-standard-16, 1, 32768, 6.59
2020-02-26 22:19, gnu8, mpich, n1-standard-16, 1, 65536, 10.40
2020-02-26 22:19, gnu8, mpich, n1-standard-16, 1, 131072, 15.66
2020-02-26 22:19, gnu8, mpich, n1-standard-16, 1, 262144, 27.69
2020-02-26 22:19, gnu8, mpich, n1-standard-16, 1, 524288, 59.43
2020-02-26 22:19, gnu8, mpich, n1-standard-16, 1, 1048576, 118.06
2020-02-26 22:19, gnu8, mpich, n1-standard-16, 1, 2097152, 237.09
2020-02-26 22:19, gnu8, mpich, n1-standard-16, 1, 4194304, 557.39
2020-02-26 22:19, gnu8, mpich, n1-standard-16, 1, 0, 0.32
2020-02-26 22:19, gnu8, mpich, n1-standard-16, 1, 1, 0.38
2020-02-26 22:19, gnu8, mpich, n1-standard-16, 1, 2, 0.37
2020-02-26 22:19, gnu8, mpich, n1-standard-16, 1, 4, 0.38
2020-02-26 22:19, gnu8, mpich, n1-standard-16, 1, 8, 0.39
2020-02-26 22:19, gnu8, mpich, n1-standard-16, 1, 16, 0.40
2020-02-26 22:19, gnu8, mpich, n1-standard-16, 1, 32, 0.38
2020-02-26 22:19, gnu8, mpich, n1-standard-16, 1, 64, 0.42
2020-02-26 22:19, gnu8, mpich, n1-standard-16, 1, 128, 0.44
2020-02-26 22:19, gnu8, mpich, n1-standard-16, 1, 256, 0.46
2020-02-26 22:19, gnu8, mpich, n1-standard-16, 1, 512, 0.53
2020-02-26 22:19, gnu8, mpich, n1-standard-16, 1, 1024, 0.73
2020-02-26 22:19, gnu8, mpich, n1-standard-16, 1, 2048, 0.93
2020-02-26 22:19, gnu8, mpich, n1-standard-16, 1, 4096, 1.39
2020-02-26 22:19, gnu8, mpich, n1-standard-16, 1, 8192, 2.31
2020-02-26 22:19, gnu8, mpich, n1-standard-16, 1, 16384, 3.97
2020-02-26 22:19, gnu8, mpich, n1-standard-16, 1, 32768, 7.25
2020-02-26 22:19, gnu8, mpich, n1-standard-16, 1, 65536, 10.75
2020-02-26 22:19, gnu8, mpich, n1-standard-16, 1, 131072, 15.67
2020-02-26 22:19, gnu8, mpich, n1-standard-16, 1, 262144, 28.99
2020-02-26 22:19, gnu8, mpich, n1-standard-16, 1, 524288, 59.94
2020-02-26 22:19, gnu8, mpich, n1-standard-16, 1, 1048576, 121.85
2020-02-26 22:19, gnu8, mpich, n1-standard-16, 1, 2097152, 236.98
2020-02-26 22:19, gnu8, mpich, n1-standard-16, 1, 4194304, 535.85
2020-02-26 22:19, gnu8, mpich, n1-standard-16, 1, 0, 0.33
2020-02-26 22:19, gnu8, mpich, n1-standard-16, 1, 1, 0.36
2020-02-26 22:19, gnu8, mpich, n1-standard-16, 1, 2, 0.39
2020-02-26 22:19, gnu8, mpich, n1-standard-16, 1, 4, 0.41
2020-02-26 22:19, gnu8, mpich, n1-standard-16, 1, 8, 0.37
2020-02-26 22:19, gnu8, mpich, n1-standard-16, 1, 16, 0.43
2020-02-26 22:19, gnu8, mpich, n1-standard-16, 1, 32, 0.45
2020-02-26 22:19, gnu8, mpich, n1-standard-16, 1, 64, 0.42
2020-02-26 22:19, gnu8, mpich, n1-standard-16, 1, 128, 0.46
2020-02-26 22:19, gnu8, mpich, n1-standard-16, 1, 256, 0.48
2020-02-26 22:19, gnu8, mpich, n1-standard-16, 1, 512, 0.59
2020-02-26 22:19, gnu8, mpich, n1-standard-16, 1, 1024, 0.73
2020-02-26 22:19, gnu8, mpich, n1-standard-16, 1, 2048, 0.95
2020-02-26 22:19, gnu8, mpich, n1-standard-16, 1, 4096, 1.44
2020-02-26 22:19, gnu8, mpich, n1-standard-16, 1, 8192, 2.32
2020-02-26 22:19, gnu8, mpich, n1-standard-16, 1, 16384, 4.03
2020-02-26 22:19, gnu8, mpich, n1-standard-16, 1, 32768, 6.70
2020-02-26 22:19, gnu8, mpich, n1-standard-16, 1, 65536, 10.40
2020-02-26 22:19, gnu8, mpich, n1-standard-16, 1, 131072, 15.64
2020-02-26 22:19, gnu8, mpich, n1-standard-16, 1, 262144, 27.96
2020-02-26 22:19, gnu8, mpich, n1-standard-16, 1, 524288, 59.27
2020-02-26 22:19, gnu8, mpich, n1-standard-16, 1, 1048576, 120.36
2020-02-26 22:19, gnu8, mpich, n1-standard-16, 1, 2097152, 226.11
2020-02-26 22:19, gnu8, mpich, n1-standard-16, 1, 4194304, 483.80
2020-02-26 22:19, gnu8, mpich, n1-standard-16, 2, 0, 44.26
2020-02-26 22:19, gnu8, mpich, n1-standard-16, 2, 1, 46.41
2020-02-26 22:19, gnu8, mpich, n1-standard-16, 2, 2, 45.99
2020-02-26 22:19, gnu8, mpich, n1-standard-16, 2, 4, 44.27
2020-02-26 22:19, gnu8, mpich, n1-standard-16, 2, 8, 45.65
2020-02-26 22:19, gnu8, mpich, n1-standard-16, 2, 16, 44.73
2020-02-26 22:19, gnu8, mpich, n1-standard-16, 2, 32, 46.76
2020-02-26 22:19, gnu8, mpich, n1-standard-16, 2, 64, 44.30
2020-02-26 22:19, gnu8, mpich, n1-standard-16, 2, 128, 46.07
2020-02-26 22:19, gnu8, mpich, n1-standard-16, 2, 256, 49.16
2020-02-26 22:19, gnu8, mpich, n1-standard-16, 2, 512, 51.56
2020-02-26 22:19, gnu8, mpich, n1-standard-16, 2, 1024, 50.78
2020-02-26 22:19, gnu8, mpich, n1-standard-16, 2, 2048, 49.42
2020-02-26 22:19, gnu8, mpich, n1-standard-16, 2, 4096, 52.88
2020-02-26 22:19, gnu8, mpich, n1-standard-16, 2, 8192, 63.43
2020-02-26 22:19, gnu8, mpich, n1-standard-16, 2, 16384, 81.14
2020-02-26 22:19, gnu8, mpich, n1-standard-16, 2, 32768, 99.81
2020-02-26 22:19, gnu8, mpich, n1-standard-16, 2, 65536, 140.90
2020-02-26 22:19, gnu8, mpich, n1-standard-16, 2, 131072, 415.07
2020-02-26 22:19, gnu8, mpich, n1-standard-16, 2, 262144, 498.78
2020-02-26 22:19, gnu8, mpich, n1-standard-16, 2, 524288, 619.53
2020-02-26 22:19, gnu8, mpich, n1-standard-16, 2, 1048576, 871.92
2020-02-26 22:19, gnu8, mpich, n1-standard-16, 2, 2097152, 1579.87
2020-02-26 22:19, gnu8, mpich, n1-standard-16, 2, 4194304, 3300.06
2020-02-26 22:19, gnu8, mpich, n1-standard-16, 2, 0, 45.83
2020-02-26 22:19, gnu8, mpich, n1-standard-16, 2, 1, 46.61
2020-02-26 22:19, gnu8, mpich, n1-standard-16, 2, 2, 47.10
2020-02-26 22:19, gnu8, mpich, n1-standard-16, 2, 4, 46.31
2020-02-26 22:19, gnu8, mpich, n1-standard-16, 2, 8, 45.71
2020-02-26 22:19, gnu8, mpich, n1-standard-16, 2, 16, 45.22
2020-02-26 22:19, gnu8, mpich, n1-standard-16, 2, 32, 47.17
2020-02-26 22:19, gnu8, mpich, n1-standard-16, 2, 64, 47.74
2020-02-26 22:19, gnu8, mpich, n1-standard-16, 2, 128, 47.26
2020-02-26 22:19, gnu8, mpich, n1-standard-16, 2, 256, 46.49
2020-02-26 22:19, gnu8, mpich, n1-standard-16, 2, 512, 48.63
2020-02-26 22:19, gnu8, mpich, n1-standard-16, 2, 1024, 56.84
2020-02-26 22:19, gnu8, mpich, n1-standard-16, 2, 2048, 56.30
2020-02-26 22:19, gnu8, mpich, n1-standard-16, 2, 4096, 58.44
2020-02-26 22:19, gnu8, mpich, n1-standard-16, 2, 8192, 66.99
2020-02-26 22:19, gnu8, mpich, n1-standard-16, 2, 16384, 81.96
2020-02-26 22:19, gnu8, mpich, n1-standard-16, 2, 32768, 108.98
2020-02-26 22:19, gnu8, mpich, n1-standard-16, 2, 65536, 152.11
2020-02-26 22:19, gnu8, mpich, n1-standard-16, 2, 131072, 460.69
2020-02-26 22:19, gnu8, mpich, n1-standard-16, 2, 262144, 531.31
2020-02-26 22:19, gnu8, mpich, n1-standard-16, 2, 524288, 658.61
2020-02-26 22:19, gnu8, mpich, n1-standard-16, 2, 1048576, 896.41
2020-02-26 22:19, gnu8, mpich, n1-standard-16, 2, 2097152, 1621.41
2020-02-26 22:19, gnu8, mpich, n1-standard-16, 2, 4194304, 3367.81
2020-02-26 22:19, gnu8, mpich, n1-standard-16, 2, 0, 39.34
2020-02-26 22:19, gnu8, mpich, n1-standard-16, 2, 1, 38.18
2020-02-26 22:19, gnu8, mpich, n1-standard-16, 2, 2, 38.50
2020-02-26 22:19, gnu8, mpich, n1-standard-16, 2, 4, 38.91
2020-02-26 22:19, gnu8, mpich, n1-standard-16, 2, 8, 39.19
2020-02-26 22:19, gnu8, mpich, n1-standard-16, 2, 16, 37.27
2020-02-26 22:19, gnu8, mpich, n1-standard-16, 2, 32, 37.84
2020-02-26 22:19, gnu8, mpich, n1-standard-16, 2, 64, 39.08
2020-02-26 22:19, gnu8, mpich, n1-standard-16, 2, 128, 40.39
2020-02-26 22:19, gnu8, mpich, n1-standard-16, 2, 256, 42.42
2020-02-26 22:19, gnu8, mpich, n1-standard-16, 2, 512, 44.45
2020-02-26 22:19, gnu8, mpich, n1-standard-16, 2, 1024, 50.52
2020-02-26 22:19, gnu8, mpich, n1-standard-16, 2, 2048, 52.90
2020-02-26 22:19, gnu8, mpich, n1-standard-16, 2, 4096, 56.63
2020-02-26 22:19, gnu8, mpich, n1-standard-16, 2, 8192, 64.29
2020-02-26 22:19, gnu8, mpich, n1-standard-16, 2, 16384, 77.17
2020-02-26 22:19, gnu8, mpich, n1-standard-16, 2, 32768, 101.81
2020-02-26 22:19, gnu8, mpich, n1-standard-16, 2, 65536, 138.63
2020-02-26 22:19, gnu8, mpich, n1-standard-16, 2, 131072, 412.63
2020-02-26 22:19, gnu8, mpich, n1-standard-16, 2, 262144, 472.53
2020-02-26 22:19, gnu8, mpich, n1-standard-16, 2, 524288, 605.47
2020-02-26 22:19, gnu8, mpich, n1-standard-16, 2, 1048576, 839.07
2020-02-26 22:19, gnu8, mpich, n1-standard-16, 2, 2097152, 1504.02
2020-02-26 22:19, gnu8, mpich, n1-standard-16, 2, 4194304, 3161.62
2020-02-26 22:19, gnu8, mpich, n1-standard-16, 2, 0, 41.02
2020-02-26 22:19, gnu8, mpich, n1-standard-16, 2, 1, 41.03
2020-02-26 22:19, gnu8, mpich, n1-standard-16, 2, 2, 39.54
2020-02-26 22:19, gnu8, mpich, n1-standard-16, 2, 4, 40.28
2020-02-26 22:19, gnu8, mpich, n1-standard-16, 2, 8, 39.92
2020-02-26 22:19, gnu8, mpich, n1-standard-16, 2, 16, 40.32
2020-02-26 22:19, gnu8, mpich, n1-standard-16, 2, 32, 41.38
2020-02-26 22:19, gnu8, mpich, n1-standard-16, 2, 64, 40.70
2020-02-26 22:19, gnu8, mpich, n1-standard-16, 2, 128, 42.11
2020-02-26 22:19, gnu8, mpich, n1-standard-16, 2, 256, 43.72
2020-02-26 22:19, gnu8, mpich, n1-standard-16, 2, 512, 45.68
2020-02-26 22:19, gnu8, mpich, n1-standard-16, 2, 1024, 52.92
2020-02-26 22:19, gnu8, mpich, n1-standard-16, 2, 2048, 55.39
2020-02-26 22:19, gnu8, mpich, n1-standard-16, 2, 4096, 58.07
2020-02-26 22:19, gnu8, mpich, n1-standard-16, 2, 8192, 67.40
2020-02-26 22:19, gnu8, mpich, n1-standard-16, 2, 16384, 82.30
2020-02-26 22:19, gnu8, mpich, n1-standard-16, 2, 32768, 105.18
2020-02-26 22:19, gnu8, mpich, n1-standard-16, 2, 65536, 150.00
2020-02-26 22:19, gnu8, mpich, n1-standard-16, 2, 131072, 444.78
2020-02-26 22:19, gnu8, mpich, n1-standard-16, 2, 262144, 494.96
2020-02-26 22:19, gnu8, mpich, n1-standard-16, 2, 524288, 631.68
2020-02-26 22:19, gnu8, mpich, n1-standard-16, 2, 1048576, 889.95
2020-02-26 22:19, gnu8, mpich, n1-standard-16, 2, 2097152, 1640.38
2020-02-26 22:19, gnu8, mpich, n1-standard-16, 2, 4194304, 3355.30
2020-02-26 22:19, gnu8, mpich, n1-standard-16, 2, 0, 38.06
2020-02-26 22:19, gnu8, mpich, n1-standard-16, 2, 1, 38.43
2020-02-26 22:19, gnu8, mpich, n1-standard-16, 2, 2, 39.22
2020-02-26 22:19, gnu8, mpich, n1-standard-16, 2, 4, 40.60
2020-02-26 22:19, gnu8, mpich, n1-standard-16, 2, 8, 40.62
2020-02-26 22:19, gnu8, mpich, n1-standard-16, 2, 16, 40.04
2020-02-26 22:19, gnu8, mpich, n1-standard-16, 2, 32, 40.38
2020-02-26 22:19, gnu8, mpich, n1-standard-16, 2, 64, 40.11
2020-02-26 22:19, gnu8, mpich, n1-standard-16, 2, 128, 40.50
2020-02-26 22:19, gnu8, mpich, n1-standard-16, 2, 256, 41.55
2020-02-26 22:19, gnu8, mpich, n1-standard-16, 2, 512, 41.43
2020-02-26 22:19, gnu8, mpich, n1-standard-16, 2, 1024, 45.91
2020-02-26 22:19, gnu8, mpich, n1-standard-16, 2, 2048, 59.73
2020-02-26 22:19, gnu8, mpich, n1-standard-16, 2, 4096, 57.46
2020-02-26 22:19, gnu8, mpich, n1-standard-16, 2, 8192, 65.17
2020-02-26 22:19, gnu8, mpich, n1-standard-16, 2, 16384, 77.74
2020-02-26 22:19, gnu8, mpich, n1-standard-16, 2, 32768, 100.88
2020-02-26 22:19, gnu8, mpich, n1-standard-16, 2, 65536, 145.06
2020-02-26 22:19, gnu8, mpich, n1-standard-16, 2, 131072, 432.90
2020-02-26 22:19, gnu8, mpich, n1-standard-16, 2, 262144, 477.51
2020-02-26 22:19, gnu8, mpich, n1-standard-16, 2, 524288, 639.83
2020-02-26 22:19, gnu8, mpich, n1-standard-16, 2, 1048576, 952.51
2020-02-26 22:19, gnu8, mpich, n1-standard-16, 2, 2097152, 1611.35
2020-02-26 22:19, gnu8, mpich, n1-standard-16, 2, 4194304, 3218.74
2020-02-26 22:19, gnu8, mpich, n1-standard-16, 2, 0, 41.34
2020-02-26 22:19, gnu8, mpich, n1-standard-16, 2, 1, 40.48
2020-02-26 22:19, gnu8, mpich, n1-standard-16, 2, 2, 39.73
2020-02-26 22:19, gnu8, mpich, n1-standard-16, 2, 4, 41.25
2020-02-26 22:19, gnu8, mpich, n1-standard-16, 2, 8, 40.28
2020-02-26 22:19, gnu8, mpich, n1-standard-16, 2, 16, 40.22
2020-02-26 22:19, gnu8, mpich, n1-standard-16, 2, 32, 40.49
2020-02-26 22:19, gnu8, mpich, n1-standard-16, 2, 64, 39.51
2020-02-26 22:19, gnu8, mpich, n1-standard-16, 2, 128, 40.73
2020-02-26 22:19, gnu8, mpich, n1-standard-16, 2, 256, 39.67
2020-02-26 22:19, gnu8, mpich, n1-standard-16, 2, 512, 40.33
2020-02-26 22:19, gnu8, mpich, n1-standard-16, 2, 1024, 46.48
2020-02-26 22:19, gnu8, mpich, n1-standard-16, 2, 2048, 52.36
2020-02-26 22:19, gnu8, mpich, n1-standard-16, 2, 4096, 58.20
2020-02-26 22:19, gnu8, mpich, n1-standard-16, 2, 8192, 66.73
2020-02-26 22:19, gnu8, mpich, n1-standard-16, 2, 16384, 84.72
2020-02-26 22:19, gnu8, mpich, n1-standard-16, 2, 32768, 105.10
2020-02-26 22:19, gnu8, mpich, n1-standard-16, 2, 65536, 147.73
2020-02-26 22:19, gnu8, mpich, n1-standard-16, 2, 131072, 441.92
2020-02-26 22:19, gnu8, mpich, n1-standard-16, 2, 262144, 508.93
2020-02-26 22:19, gnu8, mpich, n1-standard-16, 2, 524288, 648.51
2020-02-26 22:19, gnu8, mpich, n1-standard-16, 2, 1048576, 867.58
2020-02-26 22:19, gnu8, mpich, n1-standard-16, 2, 2097152, 1577.26
2020-02-26 22:19, gnu8, mpich, n1-standard-16, 2, 4194304, 3312.44
2020-02-26 22:19, gnu8, mpich, n1-standard-16, 2, 0, 40.17
2020-02-26 22:19, gnu8, mpich, n1-standard-16, 2, 1, 38.55
2020-02-26 22:19, gnu8, mpich, n1-standard-16, 2, 2, 39.19
2020-02-26 22:19, gnu8, mpich, n1-standard-16, 2, 4, 39.54
2020-02-26 22:19, gnu8, mpich, n1-standard-16, 2, 8, 38.91
2020-02-26 22:19, gnu8, mpich, n1-standard-16, 2, 16, 39.17
2020-02-26 22:19, gnu8, mpich, n1-standard-16, 2, 32, 40.06
2020-02-26 22:19, gnu8, mpich, n1-standard-16, 2, 64, 40.05
2020-02-26 22:19, gnu8, mpich, n1-standard-16, 2, 128, 40.43
2020-02-26 22:19, gnu8, mpich, n1-standard-16, 2, 256, 39.85
2020-02-26 22:19, gnu8, mpich, n1-standard-16, 2, 512, 40.85
2020-02-26 22:19, gnu8, mpich, n1-standard-16, 2, 1024, 46.81
2020-02-26 22:19, gnu8, mpich, n1-standard-16, 2, 2048, 55.41
2020-02-26 22:19, gnu8, mpich, n1-standard-16, 2, 4096, 56.77
2020-02-26 22:19, gnu8, mpich, n1-standard-16, 2, 8192, 63.83
2020-02-26 22:19, gnu8, mpich, n1-standard-16, 2, 16384, 86.90
2020-02-26 22:19, gnu8, mpich, n1-standard-16, 2, 32768, 99.99
2020-02-26 22:19, gnu8, mpich, n1-standard-16, 2, 65536, 141.22
2020-02-26 22:19, gnu8, mpich, n1-standard-16, 2, 131072, 432.00
2020-02-26 22:19, gnu8, mpich, n1-standard-16, 2, 262144, 509.45
2020-02-26 22:19, gnu8, mpich, n1-standard-16, 2, 524288, 631.45
2020-02-26 22:19, gnu8, mpich, n1-standard-16, 2, 1048576, 842.00
2020-02-26 22:19, gnu8, mpich, n1-standard-16, 2, 2097152, 1577.95
2020-02-26 22:19, gnu8, mpich, n1-standard-16, 2, 4194304, 3159.16
2020-02-26 22:19, gnu8, mpich, n1-standard-16, 2, 0, 37.70
2020-02-26 22:19, gnu8, mpich, n1-standard-16, 2, 1, 38.12
2020-02-26 22:19, gnu8, mpich, n1-standard-16, 2, 2, 38.80
2020-02-26 22:19, gnu8, mpich, n1-standard-16, 2, 4, 38.79
2020-02-26 22:19, gnu8, mpich, n1-standard-16, 2, 8, 38.54
2020-02-26 22:19, gnu8, mpich, n1-standard-16, 2, 16, 39.02
2020-02-26 22:19, gnu8, mpich, n1-standard-16, 2, 32, 41.22
2020-02-26 22:19, gnu8, mpich, n1-standard-16, 2, 64, 42.61
2020-02-26 22:19, gnu8, mpich, n1-standard-16, 2, 128, 42.08
2020-02-26 22:19, gnu8, mpich, n1-standard-16, 2, 256, 42.40
2020-02-26 22:19, gnu8, mpich, n1-standard-16, 2, 512, 44.96
2020-02-26 22:19, gnu8, mpich, n1-standard-16, 2, 1024, 49.82
2020-02-26 22:19, gnu8, mpich, n1-standard-16, 2, 2048, 57.05
2020-02-26 22:19, gnu8, mpich, n1-standard-16, 2, 4096, 63.50
2020-02-26 22:19, gnu8, mpich, n1-standard-16, 2, 8192, 75.34
2020-02-26 22:19, gnu8, mpich, n1-standard-16, 2, 16384, 91.81
2020-02-26 22:19, gnu8, mpich, n1-standard-16, 2, 32768, 115.92
2020-02-26 22:19, gnu8, mpich, n1-standard-16, 2, 65536, 164.04
2020-02-26 22:19, gnu8, mpich, n1-standard-16, 2, 131072, 525.11
2020-02-26 22:19, gnu8, mpich, n1-standard-16, 2, 262144, 591.49
2020-02-26 22:19, gnu8, mpich, n1-standard-16, 2, 524288, 708.72
2020-02-26 22:19, gnu8, mpich, n1-standard-16, 2, 1048576, 987.85
2020-02-26 22:19, gnu8, mpich, n1-standard-16, 2, 2097152, 1765.04
2020-02-26 22:19, gnu8, mpich, n1-standard-16, 2, 4194304, 3480.75
2020-02-26 22:19, gnu8, mpich, n1-standard-16, 2, 0, 42.11
2020-02-26 22:19, gnu8, mpich, n1-standard-16, 2, 1, 41.63
2020-02-26 22:19, gnu8, mpich, n1-standard-16, 2, 2, 39.24
2020-02-26 22:19, gnu8, mpich, n1-standard-16, 2, 4, 38.93
2020-02-26 22:19, gnu8, mpich, n1-standard-16, 2, 8, 40.17
2020-02-26 22:19, gnu8, mpich, n1-standard-16, 2, 16, 40.42
2020-02-26 22:19, gnu8, mpich, n1-standard-16, 2, 32, 40.69
2020-02-26 22:19, gnu8, mpich, n1-standard-16, 2, 64, 41.26
2020-02-26 22:19, gnu8, mpich, n1-standard-16, 2, 128, 41.23
2020-02-26 22:19, gnu8, mpich, n1-standard-16, 2, 256, 42.18
2020-02-26 22:19, gnu8, mpich, n1-standard-16, 2, 512, 43.73
2020-02-26 22:19, gnu8, mpich, n1-standard-16, 2, 1024, 49.89
2020-02-26 22:19, gnu8, mpich, n1-standard-16, 2, 2048, 55.03
2020-02-26 22:19, gnu8, mpich, n1-standard-16, 2, 4096, 60.21
2020-02-26 22:19, gnu8, mpich, n1-standard-16, 2, 8192, 67.39
2020-02-26 22:19, gnu8, mpich, n1-standard-16, 2, 16384, 82.53
2020-02-26 22:19, gnu8, mpich, n1-standard-16, 2, 32768, 102.42
2020-02-26 22:19, gnu8, mpich, n1-standard-16, 2, 65536, 141.83
2020-02-26 22:19, gnu8, mpich, n1-standard-16, 2, 131072, 431.37
2020-02-26 22:19, gnu8, mpich, n1-standard-16, 2, 262144, 476.74
2020-02-26 22:19, gnu8, mpich, n1-standard-16, 2, 524288, 633.87
2020-02-26 22:19, gnu8, mpich, n1-standard-16, 2, 1048576, 945.74
2020-02-26 22:19, gnu8, mpich, n1-standard-16, 2, 2097152, 1730.76
2020-02-26 22:19, gnu8, mpich, n1-standard-16, 2, 4194304, 3483.41
2020-02-26 22:19, gnu8, mpich, n1-standard-16, 2, 0, 50.14
2020-02-26 22:19, gnu8, mpich, n1-standard-16, 2, 1, 48.33
2020-02-26 22:19, gnu8, mpich, n1-standard-16, 2, 2, 48.49
2020-02-26 22:19, gnu8, mpich, n1-standard-16, 2, 4, 48.55
2020-02-26 22:19, gnu8, mpich, n1-standard-16, 2, 8, 49.67
2020-02-26 22:19, gnu8, mpich, n1-standard-16, 2, 16, 47.56
2020-02-26 22:19, gnu8, mpich, n1-standard-16, 2, 32, 49.50
2020-02-26 22:19, gnu8, mpich, n1-standard-16, 2, 64, 50.53
2020-02-26 22:19, gnu8, mpich, n1-standard-16, 2, 128, 50.99
2020-02-26 22:19, gnu8, mpich, n1-standard-16, 2, 256, 51.35
2020-02-26 22:19, gnu8, mpich, n1-standard-16, 2, 512, 50.11
2020-02-26 22:19, gnu8, mpich, n1-standard-16, 2, 1024, 56.73
2020-02-26 22:19, gnu8, mpich, n1-standard-16, 2, 2048, 59.92
2020-02-26 22:19, gnu8, mpich, n1-standard-16, 2, 4096, 62.48
2020-02-26 22:19, gnu8, mpich, n1-standard-16, 2, 8192, 68.49
2020-02-26 22:19, gnu8, mpich, n1-standard-16, 2, 16384, 85.11
2020-02-26 22:19, gnu8, mpich, n1-standard-16, 2, 32768, 110.06
2020-02-26 22:19, gnu8, mpich, n1-standard-16, 2, 65536, 153.14
2020-02-26 22:19, gnu8, mpich, n1-standard-16, 2, 131072, 479.98
2020-02-26 22:19, gnu8, mpich, n1-standard-16, 2, 262144, 549.80
2020-02-26 22:19, gnu8, mpich, n1-standard-16, 2, 524288, 711.50
2020-02-26 22:19, gnu8, mpich, n1-standard-16, 2, 1048576, 982.45
2020-02-26 22:19, gnu8, mpich, n1-standard-16, 2, 2097152, 1705.39
2020-02-26 22:19, gnu8, mpich, n1-standard-16, 2, 4194304, 3519.38
